C:\Users\qbern\OneDrive\Bureau\Important\Workspace-IDE\S4-Prog-repartie\m4102_tp3\src\test\java\fr\ulille\iut\pizzaland\IngredientResourceTest.java
C:\Users\qbern\OneDrive\Bureau\Important\Workspace-IDE\S4-Prog-repartie\m4102_tp3\src\test\java\fr\ulille\iut\pizzaland\CommandRessourceTest.java
C:\Users\qbern\OneDrive\Bureau\Important\Workspace-IDE\S4-Prog-repartie\m4102_tp3\src\test\java\fr\ulille\iut\pizzaland\PizzaRessourceTest.java
